%YAML 1.1
%TAG !u! tag:unity3d.com,2011:
--- !u!114 &11400000
MonoBehaviour:
  m_ObjectHideFlags: 0
  m_CorrespondingSourceObject: {fileID: 0}
  m_PrefabInstance: {fileID: 0}
  m_PrefabAsset: {fileID: 0}
  m_GameObject: {fileID: 0}
  m_Enabled: 1
  m_EditorHideFlags: 0
  m_Script: {fileID: 11500000, guid: a5fc604039227434d8b4e63ebc5e74a5, type: 3}
  m_Name: FSM_CivilianSimple
  m_EditorClassIdentifier: 
  selectedNode: {fileID: 114732634966478272}
  wantConnection: 0
  connectionNode: {fileID: 0}
  showProperties: 1
  states:
  - {fileID: 114580070308793040}
  - {fileID: 114239831060222544}
  - {fileID: 114272067465761348}
  - {fileID: 114732634966478272}
  - {fileID: 114459843938681796}
  - {fileID: 114139200247295812}
  panOffset: {x: 835, y: -60}
  overNode: 0
  actions:
  - {fileID: 0}
  - {fileID: 0}
  - {fileID: 0}
  - {fileID: 0}
  - {fileID: 0}
  decisions:
  - {fileID: 0}
  - {fileID: 0}
  - {fileID: 0}
  icon: {fileID: 2800000, guid: f2bf2461e03f2a84683e6cbdf17ccc3f, type: 3}
--- !u!114 &114139200247295812
MonoBehaviour:
  m_ObjectHideFlags: 1
  m_CorrespondingSourceObject: {fileID: 0}
  m_PrefabInstance: {fileID: 0}
  m_PrefabAsset: {fileID: 0}
  m_GameObject: {fileID: 0}
  m_Enabled: 1
  m_EditorHideFlags: 0
  m_Script: {fileID: 11500000, guid: 3b73a6f13cf18194e889cafd0287a9ec, type: 3}
  m_Name: Example_MoveToTarget
  m_EditorClassIdentifier: 
  description: FSM State
  selectedDecisionIndex: 0
  canRemove: 1
  canTranstTo: 1
  canSetAsDefault: 1
  canEditName: 1
  canEditColor: 1
  isOpen: 0
  isSelected: 0
  nodeRect:
    serializedVersion: 2
    x: 355
    y: 225
    width: 215
    height: 30
  positionRect: {x: 355, y: 225}
  rectWidth: 215
  editingName: 1
  nodeColor: {r: 1, g: 1, b: 1, a: 1}
  resizeLeft: 0
  resizeRight: 0
  inDrag: 0
  resetCurrentDestination: 1
  transitions:
  - decisions:
    - trueValue: 0
      decision: {fileID: 114213889532798958}
      isValid: 0
      validated: 0
    trueState: {fileID: 114272067465761348}
    falseState: {fileID: 0}
    muteTrue: 0
    muteFalse: 0
    transitionType: 0
    transitionDelay: 0
    parentState: {fileID: 114139200247295812}
    trueRect:
      serializedVersion: 2
      x: 462.5
      y: 240
      width: 0
      height: 0
    falseRect:
      serializedVersion: 2
      x: 462.5
      y: 240
      width: 0
      height: 0
    selectedTrue: 0
    selectedFalse: 0
    trueSideRight: 0
    falseSideRight: 0
    decisionEditor: {fileID: 0}
    isOpen: 0
    scroolView: {x: 0, y: 0, z: 0}
    sameTargetCount: 0
  actions:
  - {fileID: 114385938364818276}
  useActions: 1
  useDecisions: 1
  parentGraph: {fileID: 11400000}
  defaultTransition: {fileID: 0}
--- !u!114 &114213889532798958
MonoBehaviour:
  m_ObjectHideFlags: 1
  m_CorrespondingSourceObject: {fileID: 0}
  m_PrefabInstance: {fileID: 0}
  m_PrefabAsset: {fileID: 0}
  m_GameObject: {fileID: 0}
  m_Enabled: 1
  m_EditorHideFlags: 0
  m_Script: {fileID: 11500000, guid: c57c6e1b90e174f4887ad057b4ab33f6, type: 3}
  m_Name: Can MoveToTarget Example
  m_EditorClassIdentifier: 
  parentFSM: {fileID: 11400000}
  editingName: 0
  trueRect:
    serializedVersion: 2
    x: 0
    y: 0
    width: 10
    height: 10
  falseRect:
    serializedVersion: 2
    x: 0
    y: 0
    width: 10
    height: 10
  selectedTrue: 0
  selectedFalse: 0
--- !u!114 &114239831060222544
MonoBehaviour:
  m_ObjectHideFlags: 1
  m_CorrespondingSourceObject: {fileID: 0}
  m_PrefabInstance: {fileID: 0}
  m_PrefabAsset: {fileID: 0}
  m_GameObject: {fileID: 0}
  m_Enabled: 1
  m_EditorHideFlags: 0
  m_Script: {fileID: 11500000, guid: 3b73a6f13cf18194e889cafd0287a9ec, type: 3}
  m_Name: AnyState
  m_EditorClassIdentifier: 
  description: This State Run after current state
  selectedDecisionIndex: 0
  canRemove: 0
  canTranstTo: 0
  canSetAsDefault: 0
  canEditName: 0
  canEditColor: 0
  isOpen: 0
  isSelected: 0
  nodeRect:
    serializedVersion: 2
    x: 695
    y: 400
    width: 140
    height: 30
  positionRect: {x: 695, y: 400}
  rectWidth: 140
  editingName: 0
  nodeColor: {r: 0, g: 1, b: 1, a: 1}
  resizeLeft: 0
  resizeRight: 0
  inDrag: 0
  resetCurrentDestination: 0
  transitions:
  - decisions:
    - trueValue: 1
      decision: {fileID: 114716916215253828}
      isValid: 0
      validated: 0
    trueState: {fileID: 114732634966478272}
    falseState: {fileID: 0}
    muteTrue: 0
    muteFalse: 0
    transitionType: 0
    transitionDelay: 0
    parentState: {fileID: 114239831060222544}
    trueRect:
      serializedVersion: 2
      x: 765
      y: 415
      width: 0
      height: 0
    falseRect:
      serializedVersion: 2
      x: 765
      y: 415
      width: 0
      height: 0
    selectedTrue: 0
    selectedFalse: 0
    trueSideRight: 1
    falseSideRight: 1
    decisionEditor: {fileID: 0}
    isOpen: 0
    scroolView: {x: 0, y: 0, z: 0}
    sameTargetCount: 0
  - decisions:
    - trueValue: 1
      decision: {fileID: 114213889532798958}
      isValid: 0
      validated: 0
    trueState: {fileID: 114139200247295812}
    falseState: {fileID: 0}
    muteTrue: 0
    muteFalse: 0
    transitionType: 0
    transitionDelay: 0
    parentState: {fileID: 114239831060222544}
    trueRect:
      serializedVersion: 2
      x: 765
      y: 415
      width: 0
      height: 0
    falseRect:
      serializedVersion: 2
      x: 765
      y: 415
      width: 0
      height: 0
    selectedTrue: 0
    selectedFalse: 0
    trueSideRight: 0
    falseSideRight: 0
    decisionEditor: {fileID: 0}
    isOpen: 0
    scroolView: {x: 0, y: 0, z: 0}
    sameTargetCount: 0
  actions: []
  useActions: 0
  useDecisions: 1
  parentGraph: {fileID: 11400000}
  defaultTransition: {fileID: 0}
--- !u!114 &114272067465761348
MonoBehaviour:
  m_ObjectHideFlags: 1
  m_CorrespondingSourceObject: {fileID: 0}
  m_PrefabInstance: {fileID: 0}
  m_PrefabAsset: {fileID: 0}
  m_GameObject: {fileID: 0}
  m_Enabled: 1
  m_EditorHideFlags: 0
  m_Script: {fileID: 11500000, guid: 3b73a6f13cf18194e889cafd0287a9ec, type: 3}
  m_Name: Patrol
  m_EditorClassIdentifier: 
  description: FSM State
  selectedDecisionIndex: 0
  canRemove: 1
  canTranstTo: 1
  canSetAsDefault: 1
  canEditName: 1
  canEditColor: 1
  isOpen: 0
  isSelected: 0
  nodeRect:
    serializedVersion: 2
    x: 695
    y: 100
    width: 140
    height: 30
  positionRect: {x: 695, y: 100}
  rectWidth: 140
  editingName: 1
  nodeColor: {r: 0.71323526, g: 0.71323526, b: 0.06817688, a: 1}
  resizeLeft: 0
  resizeRight: 0
  inDrag: 0
  resetCurrentDestination: 1
  transitions: []
  actions:
  - {fileID: 114690108213790076}
  useActions: 1
  useDecisions: 1
  parentGraph: {fileID: 11400000}
  defaultTransition: {fileID: 0}
--- !u!114 &114368034373721498
MonoBehaviour:
  m_ObjectHideFlags: 1
  m_CorrespondingSourceObject: {fileID: 0}
  m_PrefabInstance: {fileID: 0}
  m_PrefabAsset: {fileID: 0}
  m_GameObject: {fileID: 0}
  m_Enabled: 1
  m_EditorHideFlags: 0
  m_Script: {fileID: 11500000, guid: 8c6d6c31fdfd2354aa7bfe8f96aa929c, type: 3}
  m_Name: Check FSM State
  m_EditorClassIdentifier: 
  parentFSM: {fileID: 11400000}
  editingName: 0
  trueRect:
    serializedVersion: 2
    x: 0
    y: 0
    width: 10
    height: 10
  falseRect:
    serializedVersion: 2
    x: 0
    y: 0
    width: 10
    height: 10
  selectedTrue: 0
  selectedFalse: 0
  stateIndex: 3
--- !u!114 &114385938364818276
MonoBehaviour:
  m_ObjectHideFlags: 1
  m_CorrespondingSourceObject: {fileID: 0}
  m_PrefabInstance: {fileID: 0}
  m_PrefabAsset: {fileID: 0}
  m_GameObject: {fileID: 0}
  m_Enabled: 1
  m_EditorHideFlags: 0
  m_Script: {fileID: 11500000, guid: b6b22fc94b6b8fc4e96a5b3e78f98b9a, type: 3}
  m_Name: MoveToTarget Example
  m_EditorClassIdentifier: 
  parentFSM: {fileID: 11400000}
  executionType: 1
  editingName: 0
  speed: 1
--- !u!114 &114459843938681796
MonoBehaviour:
  m_ObjectHideFlags: 1
  m_CorrespondingSourceObject: {fileID: 0}
  m_PrefabInstance: {fileID: 0}
  m_PrefabAsset: {fileID: 0}
  m_GameObject: {fileID: 0}
  m_Enabled: 1
  m_EditorHideFlags: 0
  m_Script: {fileID: 11500000, guid: 3b73a6f13cf18194e889cafd0287a9ec, type: 3}
  m_Name: Idle
  m_EditorClassIdentifier: 
  description: FSM State
  selectedDecisionIndex: 0
  canRemove: 1
  canTranstTo: 1
  canSetAsDefault: 1
  canEditName: 1
  canEditColor: 1
  isOpen: 0
  isSelected: 0
  nodeRect:
    serializedVersion: 2
    x: 695
    y: 200
    width: 140
    height: 30
  positionRect: {x: 695, y: 200}
  rectWidth: 140
  editingName: 1
  nodeColor: {r: 1, g: 1, b: 1, a: 1}
  resizeLeft: 0
  resizeRight: 0
  inDrag: 0
  resetCurrentDestination: 1
  transitions:
  - decisions: []
    trueState: {fileID: 114272067465761348}
    falseState: {fileID: 0}
    muteTrue: 0
    muteFalse: 0
    transitionType: 0
    transitionDelay: 5
    parentState: {fileID: 114459843938681796}
    trueRect:
      serializedVersion: 2
      x: 765
      y: 215
      width: 0
      height: 0
    falseRect:
      serializedVersion: 2
      x: 765
      y: 215
      width: 0
      height: 0
    selectedTrue: 0
    selectedFalse: 0
    trueSideRight: 0
    falseSideRight: 1
    decisionEditor: {fileID: 0}
    isOpen: 0
    scroolView: {x: 0, y: 0, z: 0}
    sameTargetCount: 0
  actions:
  - {fileID: 114933616510501160}
  useActions: 1
  useDecisions: 1
  parentGraph: {fileID: 11400000}
  defaultTransition: {fileID: 0}
--- !u!114 &114541839349058970
MonoBehaviour:
  m_ObjectHideFlags: 1
  m_CorrespondingSourceObject: {fileID: 0}
  m_PrefabInstance: {fileID: 0}
  m_PrefabAsset: {fileID: 0}
  m_GameObject: {fileID: 0}
  m_Enabled: 1
  m_EditorHideFlags: 0
  m_Script: {fileID: 11500000, guid: 714cdc96e35146746ab54334262480d1, type: 3}
  m_Name: Enable_ScaredEmoji
  m_EditorClassIdentifier: 
  parentFSM: {fileID: 11400000}
  executionType: 2
  editingName: 0
  listenerName: Enable_ScaredEmoji
  message: 
--- !u!114 &114580070308793040
MonoBehaviour:
  m_ObjectHideFlags: 1
  m_CorrespondingSourceObject: {fileID: 0}
  m_PrefabInstance: {fileID: 0}
  m_PrefabAsset: {fileID: 0}
  m_GameObject: {fileID: 0}
  m_Enabled: 1
  m_EditorHideFlags: 0
  m_Script: {fileID: 11500000, guid: 3b73a6f13cf18194e889cafd0287a9ec, type: 3}
  m_Name: Entry
  m_EditorClassIdentifier: 
  description: "This State run in Start to Initialize \nthe first state"
  selectedDecisionIndex: 0
  canRemove: 0
  canTranstTo: 0
  canSetAsDefault: 0
  canEditName: 0
  canEditColor: 0
  isOpen: 0
  isSelected: 0
  nodeRect:
    serializedVersion: 2
    x: 695
    y: 5
    width: 140
    height: 30
  positionRect: {x: 695, y: 5}
  rectWidth: 140
  editingName: 0
  nodeColor: {r: 0, g: 1, b: 0, a: 1}
  resizeLeft: 0
  resizeRight: 0
  inDrag: 0
  resetCurrentDestination: 0
  transitions: []
  actions: []
  useActions: 0
  useDecisions: 0
  parentGraph: {fileID: 11400000}
  defaultTransition: {fileID: 114272067465761348}
--- !u!114 &114690108213790076
MonoBehaviour:
  m_ObjectHideFlags: 1
  m_CorrespondingSourceObject: {fileID: 0}
  m_PrefabInstance: {fileID: 0}
  m_PrefabAsset: {fileID: 0}
  m_GameObject: {fileID: 0}
  m_Enabled: 1
  m_EditorHideFlags: 0
  m_Script: {fileID: 11500000, guid: 889ce58290cc53942bbe6f94db0f83f6, type: 3}
  m_Name: Patrol
  m_EditorClassIdentifier: 
  parentFSM: {fileID: 11400000}
  executionType: 1
  editingName: 0
  debugMode: 0
  patrolSpeed: 1
--- !u!114 &114716916215253828
MonoBehaviour:
  m_ObjectHideFlags: 1
  m_CorrespondingSourceObject: {fileID: 0}
  m_PrefabInstance: {fileID: 0}
  m_PrefabAsset: {fileID: 0}
  m_GameObject: {fileID: 0}
  m_Enabled: 1
  m_EditorHideFlags: 0
  m_Script: {fileID: 11500000, guid: b309ffe3fece36944b46cce1f2cf80e9, type: 3}
  m_Name: Check Damage
  m_EditorClassIdentifier: 
  parentFSM: {fileID: 11400000}
  editingName: 0
  trueRect:
    serializedVersion: 2
    x: 0
    y: 0
    width: 10
    height: 10
  falseRect:
    serializedVersion: 2
    x: 0
    y: 0
    width: 10
    height: 10
  selectedTrue: 0
  selectedFalse: 0
  damageTypeToCheck: []
--- !u!114 &114732634966478272
MonoBehaviour:
  m_ObjectHideFlags: 1
  m_CorrespondingSourceObject: {fileID: 0}
  m_PrefabInstance: {fileID: 0}
  m_PrefabAsset: {fileID: 0}
  m_GameObject: {fileID: 0}
  m_Enabled: 1
  m_EditorHideFlags: 0
  m_Script: {fileID: 11500000, guid: 3b73a6f13cf18194e889cafd0287a9ec, type: 3}
  m_Name: Flee
  m_EditorClassIdentifier: 
  description: FSM State
  selectedDecisionIndex: 0
  canRemove: 1
  canTranstTo: 1
  canSetAsDefault: 1
  canEditName: 1
  canEditColor: 1
  isOpen: 0
  isSelected: 1
  nodeRect:
    serializedVersion: 2
    x: 695
    y: 300
    width: 140
    height: 30
  positionRect: {x: 695, y: 300}
  rectWidth: 140
  editingName: 1
  nodeColor: {r: 0.65882343, g: 0.5735294, b: 1, a: 1}
  resizeLeft: 0
  resizeRight: 0
  inDrag: 0
  resetCurrentDestination: 1
  transitions:
  - decisions: []
    trueState: {fileID: 114459843938681796}
    falseState: {fileID: 0}
    muteTrue: 0
    muteFalse: 0
    transitionType: 0
    transitionDelay: 10
    parentState: {fileID: 114732634966478272}
    trueRect:
      serializedVersion: 2
      x: 765
      y: 315
      width: 0
      height: 0
    falseRect:
      serializedVersion: 2
      x: 765
      y: 315
      width: 0
      height: 0
    selectedTrue: 0
    selectedFalse: 0
    trueSideRight: 1
    falseSideRight: 1
    decisionEditor: {fileID: 0}
    isOpen: 0
    scroolView: {x: 0, y: 0, z: 0}
    sameTargetCount: 0
  actions:
  - {fileID: 114897610799459024}
  - {fileID: 114541839349058970}
  useActions: 1
  useDecisions: 1
  parentGraph: {fileID: 11400000}
  defaultTransition: {fileID: 0}
--- !u!114 &114897610799459024
MonoBehaviour:
  m_ObjectHideFlags: 1
  m_CorrespondingSourceObject: {fileID: 0}
  m_PrefabInstance: {fileID: 0}
  m_PrefabAsset: {fileID: 0}
  m_GameObject: {fileID: 0}
  m_Enabled: 1
  m_EditorHideFlags: 0
  m_Script: {fileID: 11500000, guid: 13ae139fc49b5fd4db1edea711d8eeb7, type: 3}
  m_Name: Flee
  m_EditorClassIdentifier: 
  parentFSM: {fileID: 11400000}
  executionType: 3
  editingName: 0
  fleeSpeed: 2
  fleeDistance: 5
  debugMode: 0
  debugFleeDirection: 0
--- !u!114 &114933616510501160
MonoBehaviour:
  m_ObjectHideFlags: 1
  m_CorrespondingSourceObject: {fileID: 0}
  m_PrefabInstance: {fileID: 0}
  m_PrefabAsset: {fileID: 0}
  m_GameObject: {fileID: 0}
  m_Enabled: 1
  m_EditorHideFlags: 0
  m_Script: {fileID: 11500000, guid: 714cdc96e35146746ab54334262480d1, type: 3}
  m_Name: Disable_ScaredEmoji
  m_EditorClassIdentifier: 
  parentFSM: {fileID: 11400000}
  executionType: 2
  editingName: 0
  listenerName: Disable_ScaredEmoji
  message: 
